This is BibTeX, Version 0.99d (TeX Live 2018/Arch Linux)
Capacity: max_strings=100000, hash_size=100000, hash_prime=85009
The top-level auxiliary file: main.aux
The style file: IEEEtran.bst
Reallocated singl_function (elt_size=8) to 100 items from 50.
Reallocated singl_function (elt_size=8) to 100 items from 50.
Reallocated singl_function (elt_size=8) to 100 items from 50.
Reallocated wiz_functions (elt_size=8) to 6000 items from 3000.
Reallocated singl_function (elt_size=8) to 100 items from 50.
Database file #1: references.bib
-- IEEEtran.bst version 1.12 (2007/01/11) by Michael Shell.
-- http://www.michaelshell.org/tex/ieeetran/bibtex/
-- See the "IEEEtran_bst_HOWTO.pdf" manual for usage information.

Done.
You've used 17 entries,
            4024 wiz_defined-function locations,
            908 strings with 10379 characters,
and the built_in function-call counts, 10854 in all, are:
= -- 875
> -- 224
< -- 78
+ -- 122
- -- 40
* -- 503
:= -- 1708
add.period$ -- 37
call.type$ -- 17
change.case$ -- 18
chr.to.int$ -- 168
cite$ -- 17
duplicate$ -- 813
empty$ -- 925
format.name$ -- 48
if$ -- 2463
int.to.chr$ -- 0
int.to.str$ -- 17
missing$ -- 150
newline$ -- 78
num.names$ -- 17
pop$ -- 352
preamble$ -- 1
purify$ -- 0
quote$ -- 2
skip$ -- 847
stack$ -- 0
substring$ -- 416
swap$ -- 627
text.length$ -- 22
text.prefix$ -- 0
top$ -- 5
type$ -- 17
warning$ -- 0
while$ -- 46
width$ -- 19
write$ -- 182
